{
  "project_info": {
    "project_number": "656350548195",
    "firebase_url": "https://consonantquiz.firebaseio.com",
    "project_id": "consonantquiz",
    "storage_bucket": "consonantquiz.appspot.com"
  },
  "client": [
    {
      "client_info": {
        "mobilesdk_app_id": "1:656350548195:android:881cead12c100beb",
        "android_client_info": {
          "package_name": "com.consonantquiz"
        }
      },
      "oauth_client": [
        {
          "client_id": "656350548195-jqqdot0tu5iod9vqeksc6icb69671mr5.apps.googleusercontent.com",
          "client_type": 1,
          "android_info": {
            "package_name": "com.consonantquiz",
            "certificate_hash": "6de9ed93e3c4d9c0f8f09541a58df4f6cbff1471"
          }
        },
        {
          "client_id": "656350548195-4p1gvggv111rbvqlrmumf4m7suegpir0.apps.googleusercontent.com",
          "client_type": 3
        }
      ],
      "api_key": [
        {
          "current_key": "AIzaSyBciVNvEpDRmfl9a12uDny9PXxfwHyELT0"
        }
      ],
      "services": {
        "analytics_service": {
          "status": 1
        },
        "appinvite_service": {
          "status": 2,
          "other_platform_oauth_client": [
            {
              "client_id": "656350548195-4p1gvggv111rbvqlrmumf4m7suegpir0.apps.googleusercontent.com",
              "client_type": 3
            }
          ]
        },
        "ads_service": {
          "status": 2
        }
      }
    }
  ],
  "configuration_version": "1"
}